﻿{
  "ProviderId": "Microsoft.VisualStudio.ConnectedService.Wcf",
  "Version": "15.0.40203.910",
  "ExtendedData": {
    "inputs": [
      "http://led-pre-wcfconsultasjuridicas/ServiceConsultasJuridicas.svc"
    ],
    "collectionTypes": [
      "System.Array",
      "System.Collections.Generic.Dictionary`2"
    ],
    "namespaceMappings": [
      "*, ConsultoriaSvc"
    ],
    "references": [
      "C:\\Git\\WebApi\\Patton-Api\\Patton.Servicio\\bin\\Debug\\netcoreapp2.0\\DllWcfUtility.dll"
    ],
    "targetFramework": "netcoreapp2.0",
    "typeReuseMode": "Specified"
  }
}