﻿{
  "ProviderId": "Microsoft.VisualStudio.ConnectedService.Wcf",
  "Version": "15.0.30730.948",
  "GettingStartedDocument": {
    "Uri": "https://go.microsoft.com/fwlink/?linkid=858517"
  },
  "ExtendedData": {
    "inputs": [
      "http://led-pre-wcfextramementos/ServiceExtraMementos.svc"
    ],
    "collectionTypes": [
      "System.Array",
      "System.Collections.Generic.Dictionary`2"
    ],
    "namespaceMappings": [
      "*, ExtraMementosSvc"
    ],
    "references": [
      "C:\\Git\\WebApi\\AreaPersonal-Api\\AreaPersonal.Servicio\\bin\\Debug\\netcoreapp2.0\\DllWcfUtility.dll"
    ],
    "targetFramework": "netcoreapp2.0",
    "typeReuseMode": "Specified"
  }
}